{
  "type": "mysql",
  "host": "b1f4pjxt0elsazrxpb1x-mysql.services.clever-cloud.com",
  "port": "3306",
  "username": "u4jqbyo1mohu8cpy",
  "password": "3N0wRWy1TImAdKu5y2Bz",
  "database": "b1f4pjxt0elsazrxpb1x",
  "entities": ["dist/entity/**/*.js"],
  "logging": false,
  "synchronize": true
}